sim/test_mkio.vcd
$date
	Sat Mar 25 13:55:25 2023
$end
$version
	Icarus Verilog
$end
$timescale
	1ps
$end
$scope module test_mkio $end
$var wire 16 ! out_data_dev2 [15:0] $end
$var wire 1 " busy_dev4 $end
$var wire 1 # busy_dev2 $end
$var wire 1 $ TX_INHIBIT_B $end
$var wire 1 % TX_INHIBIT_A $end
$var wire 1 & RX_STROB_B $end
$var wire 1 ' RX_STROB_A $end
$var wire 1 ( DO1B $end
$var wire 1 ) DO1A $end
$var wire 1 * DO0B $end
$var wire 1 + DO0A $end
$var reg 1 , DI0A $end
$var reg 1 - DI0B $end
$var reg 1 . DI1A $end
$var reg 1 / DI1B $end
$var reg 5 0 addr_rd_dev2 [4:0] $end
$var reg 5 1 addr_wr_dev4 [4:0] $end
$var reg 1 2 clk $end
$var reg 1 3 clk_rd_dev2 $end
$var reg 1 4 clk_wr_dev4 $end
$var reg 16 5 in_data_dev4 [15:0] $end
$var reg 1 6 reset $end
$var reg 1 7 we_dev4 $end
$var integer 32 8 i [31:0] $end
$scope module DUT $end
$var wire 1 , DI0A $end
$var wire 1 - DI0B $end
$var wire 1 . DI1A $end
$var wire 1 / DI1B $end
$var wire 5 9 addr_rd_dev2 [4:0] $end
$var wire 5 : addr_wr_dev4 [4:0] $end
$var wire 1 2 clk $end
$var wire 1 ; clk32 $end
$var wire 1 3 clk_rd_dev2 $end
$var wire 1 4 clk_wr_dev4 $end
$var wire 16 < in_data_dev4 [15:0] $end
$var wire 1 6 rst $end
$var wire 1 7 we_dev4 $end
$var wire 1 = tx_ready $end
$var wire 16 > tx_data [15:0] $end
$var wire 1 ? tx_cd $end
$var wire 1 @ tx_busy $end
$var wire 1 A rx_done $end
$var wire 16 B rx_data [15:0] $end
$var wire 1 C rx_cd $end
$var wire 1 D reset $end
$var wire 1 E parity_error $end
$var wire 16 F out_data_dev2 [15:0] $end
$var wire 1 " busy_dev4 $end
$var wire 1 # busy_dev2 $end
$var wire 1 G DO1 $end
$var wire 1 H DO0 $end
$var reg 1 I DI0 $end
$var reg 1 J DI1 $end
$var reg 1 + DO0A $end
$var reg 1 * DO0B $end
$var reg 1 ) DO1A $end
$var reg 1 ( DO1B $end
$var reg 1 ' RX_STROB_A $end
$var reg 1 & RX_STROB_B $end
$var reg 1 % TX_INHIBIT_A $end
$var reg 1 $ TX_INHIBIT_B $end
$var reg 1 K clk16 $end
$var reg 5 L ena_reg [4:0] $end
$scope module control_sb $end
$var wire 5 M addr_rd_dev2 [4:0] $end
$var wire 5 N addr_wr_dev4 [4:0] $end
$var wire 1 ; clk $end
$var wire 1 3 clk_rd_dev2 $end
$var wire 1 4 clk_wr_dev4 $end
$var wire 1 O dev2_raw $end
$var wire 1 P dev4_raw $end
$var wire 16 Q in_data_dev4 [15:0] $end
$var wire 1 7 we_dev4 $end
$var wire 1 R wr_rd $end
$var wire 1 S tx_ready_dev4 $end
$var wire 1 T tx_ready_dev2 $end
$var wire 16 U tx_data_dev4 [15:0] $end
$var wire 16 V tx_data_dev2 [15:0] $end
$var wire 1 W tx_cd_dev4 $end
$var wire 1 X tx_cd_dev2 $end
$var wire 1 @ tx_busy $end
$var wire 1 A rx_done $end
$var wire 16 Y rx_data [15:0] $end
$var wire 1 C rx_cd $end
$var wire 1 D reset $end
$var wire 1 E p_error $end
$var wire 16 Z out_data_dev2 [15:0] $end
$var wire 1 [ dev4 $end
$var wire 1 \ dev2 $end
$var wire 1 " busy_dev4 $end
$var wire 1 # busy_dev2 $end
$var parameter 5 ] ADDRESS $end
$var parameter 5 ^ SUBADDR_2 $end
$var parameter 5 _ SUBADDR_4 $end
$var reg 1 ` sel $end
$var reg 1 ? tx_cd $end
$var reg 16 a tx_data [15:0] $end
$var reg 1 = tx_ready $end
$scope module device2_sb $end
$var wire 5 b addr_rd [4:0] $end
$var wire 1 ; clk $end
$var wire 1 3 clk_rd $end
$var wire 16 c in_data [15:0] $end
$var wire 1 @ tx_busy $end
$var wire 1 \ start $end
$var wire 1 A rx_done $end
$var wire 16 d rx_data [15:0] $end
$var wire 1 D reset $end
$var wire 1 E p_error $end
$var wire 16 e out_data [15:0] $end
$var parameter 5 f ADDRESS $end
$var reg 4 g STATE [3:0] $end
$var reg 5 h addr_wr [4:0] $end
$var reg 1 # busy $end
$var reg 1 i clk_wr $end
$var reg 6 j cnt_p [5:0] $end
$var reg 8 k cnt_pause [7:0] $end
$var reg 5 l cnt_word [4:0] $end
$var reg 2 m delay_impulse [1:0] $end
$var reg 5 n num_word [4:0] $end
$var reg 5 o num_word_buf [4:0] $end
$var reg 1 X tx_cd $end
$var reg 16 p tx_data [15:0] $end
$var reg 1 T tx_ready $end
$var reg 1 q we $end
$scope module mem_dev2_sb $end
$var wire 16 r data [15:0] $end
$var wire 5 s read_addr [4:0] $end
$var wire 1 3 read_clock $end
$var wire 1 q we $end
$var wire 5 t write_addr [4:0] $end
$var wire 1 i write_clock $end
$var parameter 32 u ADDR_WIDTH $end
$var parameter 32 v DATA_WIDTH $end
$var reg 16 w q [15:0] $end
$upscope $end
$scope begin state_machine $end
$upscope $end
$upscope $end
$scope module device4_sb $end
$var wire 5 x addr_wr [4:0] $end
$var wire 1 ; clk $end
$var wire 1 4 clk_wr $end
$var wire 16 y in_data [15:0] $end
$var wire 1 7 we $end
$var wire 1 @ tx_busy $end
$var wire 1 [ start $end
$var wire 16 z rx_data [15:0] $end
$var wire 1 D reset $end
$var wire 1 E p_error $end
$var wire 16 { out_data [15:0] $end
$var parameter 5 | ADDRESS $end
$var reg 4 } STATE [3:0] $end
$var reg 5 ~ addr_rd [4:0] $end
$var reg 1 " busy $end
$var reg 1 !" clk_rd $end
$var reg 6 "" cnt_p [5:0] $end
$var reg 8 #" cnt_pause [7:0] $end
$var reg 5 $" cnt_word [4:0] $end
$var reg 8 %" delay_CW_RW [7:0] $end
$var reg 2 &" delay_impulse [1:0] $end
$var reg 5 '" num_word [4:0] $end
$var reg 5 (" num_word_buf [4:0] $end
$var reg 1 W tx_cd $end
$var reg 16 )" tx_data [15:0] $end
$var reg 1 S tx_ready $end
$scope module mem_dev4_sb $end
$var wire 16 *" data [15:0] $end
$var wire 5 +" read_addr [4:0] $end
$var wire 1 !" read_clock $end
$var wire 1 7 we $end
$var wire 5 ," write_addr [4:0] $end
$var wire 1 4 write_clock $end
$var parameter 32 -" ADDR_WIDTH $end
$var parameter 32 ." DATA_WIDTH $end
$var reg 16 /" q [15:0] $end
$upscope $end
$scope begin state_machine $end
$upscope $end
$upscope $end
$scope module enable_sync_sb1 $end
$var wire 1 ; clk $end
$var wire 1 O enable_in $end
$var wire 1 D reset $end
$var reg 3 0" en_sync [2:0] $end
$var reg 1 \ enable_out $end
$scope begin metastability $end
$upscope $end
$scope begin reclocking $end
$upscope $end
$upscope $end
$scope module enable_sync_sb2 $end
$var wire 1 ; clk $end
$var wire 1 P enable_in $end
$var wire 1 D reset $end
$var reg 3 1" en_sync [2:0] $end
$var reg 1 [ enable_out $end
$scope begin metastability $end
$upscope $end
$scope begin reclocking $end
$upscope $end
$upscope $end
$scope begin tx_interface $end
$upscope $end
$upscope $end
$scope module receiver_sb $end
$var wire 1 I DI0 $end
$var wire 1 J DI1 $end
$var wire 1 K clk $end
$var wire 1 2" reset_length_bit $end
$var wire 1 3" true_data_packet $end
$var wire 1 D reset $end
$var wire 1 4" parity_buf $end
$var wire 1 5" middle_bit $end
$var wire 1 6" in_data $end
$var wire 16 7" data_buf [15:0] $end
$var wire 1 8" cd_buf $end
$var reg 1 C cd_get $end
$var reg 16 9" data_get [15:0] $end
$var reg 1 :" det_sig $end
$var reg 1 A done $end
$var reg 1 ;" ena_wr $end
$var reg 3 <" length_bit [2:0] $end
$var reg 40 =" manchester_reg [39:0] $end
$var reg 3 >" neg_shift_reg [2:0] $end
$var reg 1 E parity_error $end
$var reg 3 ?" pos_shift_reg [2:0] $end
$var reg 3 @" sig_shift_reg [2:0] $end
$scope begin bit_a[0] $end
$var parameter 2 A" i $end
$upscope $end
$scope begin bit_a[1] $end
$var parameter 2 B" i $end
$upscope $end
$scope begin bit_a[2] $end
$var parameter 3 C" i $end
$upscope $end
$scope begin bit_a[3] $end
$var parameter 3 D" i $end
$upscope $end
$scope begin bit_a[4] $end
$var parameter 4 E" i $end
$upscope $end
$scope begin bit_a[5] $end
$var parameter 4 F" i $end
$upscope $end
$scope begin bit_a[6] $end
$var parameter 4 G" i $end
$upscope $end
$scope begin bit_a[7] $end
$var parameter 4 H" i $end
$upscope $end
$scope begin bit_a[8] $end
$var parameter 5 I" i $end
$upscope $end
$scope begin bit_a[9] $end
$var parameter 5 J" i $end
$upscope $end
$scope begin bit_a[10] $end
$var parameter 5 K" i $end
$upscope $end
$scope begin bit_a[11] $end
$var parameter 5 L" i $end
$upscope $end
$scope begin bit_a[12] $end
$var parameter 5 M" i $end
$upscope $end
$scope begin bit_a[13] $end
$var parameter 5 N" i $end
$upscope $end
$scope begin bit_a[14] $end
$var parameter 5 O" i $end
$upscope $end
$scope begin bit_a[15] $end
$var parameter 5 P" i $end
$upscope $end
$upscope $end
$scope module reset_sync_sb $end
$var wire 1 2 clk $end
$var wire 1 6 rst $end
$var reg 1 D reset $end
$var reg 1 Q" rst_reg $end
$var reg 1 R" rst_shift $end
$scope begin metastability $end
$upscope $end
$upscope $end
$scope module transmitter_sb $end
$var wire 1 ? cd_send $end
$var wire 1 K clk $end
$var wire 16 S" data_send [15:0] $end
$var wire 1 = imp_send $end
$var wire 1 D reset $end
$var wire 32 T" data_manchester [31:0] $end
$var reg 1 H DO0 $end
$var reg 1 G DO1 $end
$var reg 1 @ busy_send $end
$var reg 1 U" cd_buf $end
$var reg 6 V" count_bit [5:0] $end
$var reg 16 W" data_buf [15:0] $end
$var reg 3 X" length_bit [2:0] $end
$var reg 1 Y" parity $end
$var reg 40 Z" word_manchester [39:0] $end
$scope begin gen_manchester[0] $end
$var parameter 2 [" i $end
$upscope $end
$scope begin gen_manchester[1] $end
$var parameter 2 \" i $end
$upscope $end
$scope begin gen_manchester[2] $end
$var parameter 3 ]" i $end
$upscope $end
$scope begin gen_manchester[3] $end
$var parameter 3 ^" i $end
$upscope $end
$scope begin gen_manchester[4] $end
$var parameter 4 _" i $end
$upscope $end
$scope begin gen_manchester[5] $end
$var parameter 4 `" i $end
$upscope $end
$scope begin gen_manchester[6] $end
$var parameter 4 a" i $end
$upscope $end
$scope begin gen_manchester[7] $end
$var parameter 4 b" i $end
$upscope $end
$scope begin gen_manchester[8] $end
$var parameter 5 c" i $end
$upscope $end
$scope begin gen_manchester[9] $end
$var parameter 5 d" i $end
$upscope $end
$scope begin gen_manchester[10] $end
$var parameter 5 e" i $end
$upscope $end
$scope begin gen_manchester[11] $end
$var parameter 5 f" i $end
$upscope $end
$scope begin gen_manchester[12] $end
$var parameter 5 g" i $end
$upscope $end
$scope begin gen_manchester[13] $end
$var parameter 5 h" i $end
$upscope $end
$scope begin gen_manchester[14] $end
$var parameter 5 i" i $end
$upscope $end
$scope begin gen_manchester[15] $end
$var parameter 5 j" i $end
$upscope $end
$scope begin manchester $end
$upscope $end
$upscope $end
$scope begin inout_MKIO $end
$upscope $end
$scope begin permit_transmitter $end
$upscope $end
$upscope $end
$scope task array_init $end
$var integer 32 k" i [31:0] $end
$upscope $end
$scope task read_ram2 $end
$var reg 5 l" addr [4:0] $end
$upscope $end
$scope task word_receiver $end
$var reg 20 m" tb_data_reg [19:0] $end
$var reg 40 n" tb_man_reg [39:0] $end
$var integer 32 o" i [31:0] $end
$upscope $end
$scope task word_transmit $end
$var reg 16 p" data [15:0] $end
$var reg 1 q" parity $end
$var reg 40 r" shift_reg [39:0] $end
$var reg 1 s" sync $end
$var integer 32 t" i [31:0] $end
$upscope $end
$scope task write_ram4 $end
$var reg 5 u" addr [4:0] $end
$var reg 16 v" data [15:0] $end
$upscope $end
$upscope $end
$enddefinitions $end
$comment Show the parameter values. $end
$dumpall
b1111 j"
b1110 i"
b1101 h"
b1100 g"
b1011 f"
b1010 e"
b1001 d"
b1000 c"
b111 b"
b110 a"
b101 `"
b100 _"
b11 ^"
b10 ]"
b1 \"
b0 ["
b1111 P"
b1110 O"
b1101 N"
b1100 M"
b1011 L"
b1010 K"
b1001 J"
b1000 I"
b111 H"
b110 G"
b101 F"
b100 E"
b11 D"
b10 C"
b1 B"
b0 A"
b10000 ."
b101 -"
b1 |
b10000 v
b101 u
b1 f
b100 _
b10 ^
b1 ]
$end
#0
$dumpvars
bx v"
bx u"
bx t"
xs"
bx r"
xq"
bx p"
bx o"
bx n"
bx m"
bx l"
b100000 k"
bx Z"
xY"
bx X"
bx W"
bx V"
xU"
bx T"
bx S"
xR"
xQ"
bx @"
bx ?"
bx >"
bx ="
bx <"
x;"
x:"
bx 9"
x8"
bx 7"
x6"
x5"
x4"
x3"
x2"
bx 1"
bx 0"
bx /"
b0 ,"
bx +"
b0 *"
bx )"
b0 ("
b0 '"
b10 &"
b11111111 %"
bx $"
bx #"
bx ""
x!"
bx ~
bx }
bx {
bx z
b0 y
b0 x
bx w
bx t
b0 s
bx r
xq
bx p
b0 o
b0 n
b10 m
bx l
bx k
bx j
xi
bx h
bx g
bx e
bx d
bx c
b0 b
bx a
x`
x\
x[
bx Z
bx Y
xX
xW
bx V
bx U
xT
xS
xR
b0 Q
xP
xO
b0 N
b0 M
b0 L
0K
0J
0I
xH
xG
bx F
xE
xD
xC
bx B
xA
x@
x?
bx >
x=
b0 <
0;
b0 :
b0 9
bx 8
07
06
b0 5
04
03
02
b0 1
b0 0
0/
0.
0-
0,
x+
x*
x)
x(
1'
1&
1%
1$
x#
x"
bx !
$end
#31250
x$
x&
x%
x'
0*
0(
0+
0)
bx0 >"
bx0 ?"
b0x L
0H
0G
1K
1R"
1;
12
#46875
0;
02
#62500
0K
1Q"
1;
12
#78125
0;
02
#93750
b0xx L
bx00 >"
bx00 ?"
1K
0D
1;
12
#109375
0;
02
#125000
0K
1;
12
#140625
0;
02
#156250
b0 >"
b0 ?"
b0xxx L
1K
1;
12
#171875
0;
02
#187500
0K
1;
12
#203125
0;
02
#218750
b0xxxx L
1K
1;
12
#234375
0;
02
#250000
0K
1;
12
#265625
0;
02
#281250
bx L
1K
1;
12
#296875
0;
02
#312500
0Q"
0R"
0K
16
1;
12
#328125
0;
02
#343750
0O
03"
0P
02"
1$
1&
1%
1'
0R
b0 7"
04"
08"
06"
b1110000101010101010101010101010101010110 Z"
1Y"
b1010101010101010101010101010101 T"
0#
0T
b0 j
b0 l
0i
0q
b0 h
b0 t
b0 V
b0 p
b0 g
b0 ~
b0 +"
b0 $"
0!"
b0 ""
b0 }
b0 1"
b0 0"
b0 L
b0 c
b0 r
b0 B
b0 Y
b0 d
b0 z
b0 9"
0;"
0E
0C
b0 ="
05"
b0 <"
b0 @"
0:"
b0 V"
b0 X"
0U"
b0 W"
0@
1K
1D
1;
12
#359375
0;
02
#375000
0[
0\
0K
1;
12
#390625
0;
02
#406250
1K
1;
12
#421875
0;
02
#437500
0K
1;
12
#453125
0;
02
#468750
1K
1;
12
#484375
0;
02
#500000
0K
1;
12
#515625
0;
02
#531250
1K
1;
12
#546875
0;
02
#562500
0K
1;
12
#578125
0;
02
#593750
1K
1;
12
#609375
0;
02
#625000
0K
06
1;
12
#640625
0;
02
#656250
1K
1R"
1;
12
#671875
0;
02
#687500
0K
1Q"
1;
12
#703125
0;
02
#718750
0A
b1 <"
1:"
1K
0D
1;
12
#734375
0;
02
#750000
0=
b0 >
b0 a
b0 S"
b0 k
0X
b0 #"
0"
b0 U
b0 )"
0S
0K
1;
12
#765625
0;
02
#781250
0:"
b1 @"
b10 <"
1K
1;
12
#796875
0;
02
#812500
0K
1;
12
#828125
0;
02
#843750
12"
15"
b11 <"
b10 @"
1:"
1K
1;
12
#859375
0;
02
#875000
0K
1;
12
#890625
0;
02
#906250
16"
0:"
b101 @"
05"
b0 <"
1;"
1K
1;
12
#921875
0;
02
#937500
0K
1;
12
#953125
0;
02
#968750
06"
0;"
b10 @"
1:"
1K
1;
12
#984375
0;
02
#1000000
0K
1;
12
#1015625
0;
02
#1031250
16"
0:"
b101 @"
1K
1;
12
#1046875
0;
02
#1062500
0K
1;
12
#1078125
0;
02
#1093750
06"
b10 @"
1:"
1K
1;
12
#1109375
0;
02
#1125000
0K
1;
12
#1140625
0;
02
#1156250
16"
0:"
b101 @"
1K
1;
12
#1171875
0;
02
#1187500
0K
1;
12
#1203125
0;
02
#1218750
06"
b10 @"
1:"
1K
1;
12
#1234375
0;
02
#1250000
0K
1;
12
#1265625
0;
02
#1281250
16"
0:"
b101 @"
1K
1;
12
#1296875
0;
02
#1312500
0K
1;
12
#1328125
0;
02
#1343750
06"
b10 @"
1:"
1K
1;
12
#1359375
0;
02
#1375000
0K
1;
12
#1390625
0;
02
#1406250
16"
0:"
b101 @"
1K
1;
12
#1421875
0;
02
#1437500
0K
1;
12
#1453125
0;
02
#1468750
06"
b10 @"
1:"
1K
1;
12
#1484375
0;
02
#1500000
0K
1;
12
#1515625
0;
02
#1531250
16"
0:"
b101 @"
1K
1;
12
#1546875
0;
02
#1562500
0K
1;
12
#1578125
0;
02
#1593750
06"
b10 @"
1:"
1K
1;
12
#1609375
0;
02
#1625000
0K
1;
12
#1640625
0;
02
#1656250
16"
0:"
b101 @"
1K
1;
12
#1671875
0;
02
#1687500
0K
1;
12
#1703125
0;
02
#1718750
06"
b10 @"
1:"
1K
1;
12
#1734375
0;
02
#1750000
0K
1;
12
#1765625
0;
02
#1781250
16"
0:"
b101 @"
1K
1;
12
#1796875
0;
02
#1812500
0K
1;
12
#1828125
0;
02
#1843750
06"
b10 @"
1:"
1K
1;
12
#1859375
0;
02
#1875000
0K
1;
12
#1890625
0;
02
#1906250
16"
0:"
b101 @"
1K
1;
12
#1921875
0;
02
#1937500
0K
1;
12
#1953125
0;
02
#1968750
06"
b10 @"
1:"
1K
1;
12
#1984375
0;
02
#2000000
0K
1;
12
#2015625
0;
02
#2031250
16"
0:"
b101 @"
1K
1;
12
#2046875
0;
02
#2062500
0K
1;
12
#2078125
0;
02
#2093750
06"
b10 @"
1:"
1K
1;
12
#2109375
0;
02
#2125000
0K
1;
12
#2140625
0;
02
#2156250
16"
0:"
b101 @"
1K
1;
12
#2171875
0;
02
#2187500
0K
1;
12
#2203125
0;
02
#2218750
06"
b10 @"
1:"
1K
1;
12
#2234375
0;
02
#2250000
0K
1;
12
#2265625
0;
02
#2281250
16"
0:"
b101 @"
1K
1;
12
#2296875
0;
02
#2312500
0K
1;
12
#2328125
0;
02
#2343750
06"
b10 @"
1:"
1K
1;
12
#2359375
0;
02
#2375000
0K
1;
12
#2390625
0;
02
#2406250
16"
0:"
b101 @"
1K
1;
12
#2421875
0;
02
#2437500
0K
1;
12
#2453125
0;
02
#2468750
06"
b10 @"
1:"
1K
1;
12
#2484375
0;
02
#2500000
0K
1;
12
#2515625
0;
02
#2531250
16"
0:"
b101 @"
1K
1;
12
#2546875
0;
02
#2562500
0K
1;
12
#2578125
0;
02
#2593750
06"
b10 @"
1:"
1K
1;
12
#2609375
0;
02
#2625000
0K
1;
12
#2640625
0;
02
#2656250
16"
0:"
b101 @"
1K
1;
12
#2671875
0;
02
#2687500
0K
1;
12
#2703125
0;
02
#2718750
06"
b10 @"
1:"
1K
1;
12
#2734375
0;
02
#2750000
0K
1;
12
#2765625
0;
02
#2781250
16"
0:"
b101 @"
1K
1;
12
#2796875
0;
02
#2812500
0K
1;
12
#2828125
0;
02
#2843750
06"
b10 @"
1:"
1K
1;
12
#2859375
0;
02
#2875000
0K
1;
12
#2890625
0;
02
#2906250
16"
0:"
b101 @"
1K
1;
12
#2921875
0;
02
#2937500
0K
1;
12
#2953125
0;
02
#2968750
06"
b10 @"
1:"
1K
1;
12
#2984375
0;
02
#3000000
0K
1;
12
#3015625
0;
02
#3031250
16"
0:"
b101 @"
1K
1;
12
#3046875
0;
02
#3062500
0K
1;
12
#3078125
0;
02
#3093750
06"
b10 @"
1:"
1K
1;
12
#3109375
0;
02
#3125000
0K
1;
12
#3140625
0;
02
#3156250
16"
0:"
b101 @"
1K
1;
12
#3171875
0;
02
#3187500
0K
1;
12
#3203125
0;
02
#3218750
06"
b10 @"
1:"
1K
1;
12
#3234375
0;
02
#3250000
0K
1;
12
#3265625
0;
02
#3281250
16"
0:"
b101 @"
1K
1;
12
#3296875
0;
02
#3312500
0K
1;
12
#3328125
0;
02
#3343750
06"
b10 @"
1:"
1K
1;
12
#3359375
0;
02
#3375000
0K
1;
12
#3390625
0;
02
#3406250
16"
0:"
b101 @"
1K
1;
12
#3421875
0;
02
#3437500
0K
1;
12
#3453125
0;
02
#3468750
06"
b10 @"
1:"
1K
1;
12
#3484375
0;
02
#3500000
0K
1;
12
#3515625
0;
02
#3531250
16"
0:"
b101 @"
1K
1;
12
#3546875
0;
02
#3562500
0K
1;
12
#3578125
0;
02
#3593750
06"
b10 @"
1:"
1K
1;
12
#3609375
0;
02
#3625000
0K
1;
12
#3640625
0;
02
#3656250
16"
0:"
b101 @"
1K
1;
12
#3671875
0;
02
#3687500
0K
1;
12
#3703125
0;
02
#3718750
06"
b10 @"
1:"
1K
1;
12
#3734375
0;
02
#3750000
0K
1;
12
#3765625
0;
02
#3781250
16"
0:"
b101 @"
1K
1;
12
#3796875
0;
02
#3812500
0K
1;
12
#3828125
0;
02
#3843750
06"
b10 @"
1:"
1K
1;
12
#3859375
0;
02
#3875000
0K
1;
12
#3890625
0;
02
#3906250
16"
0:"
b101 @"
1K
1;
12
#3921875
0;
02
#3937500
0K
1;
12
#3953125
0;
02
#3968750
06"
b10 @"
1:"
1K
1;
12
#3984375
0;
02
#4000000
0K
1;
12
#4015625
0;
02
#4031250
16"
0:"
b101 @"
1K
1;
12
#4046875
0;
02
#4062500
0K
1;
12
#4078125
0;
02
#4093750
06"
b10 @"
1:"
1K
1;
12
#4109375
0;
02
#4125000
0K
1;
12
#4140625
0;
02
#4156250
16"
0:"
b101 @"
1K
1;
12
#4171875
0;
02
#4187500
0K
1;
12
#4203125
0;
02
#4218750
06"
b10 @"
1:"
1K
1;
12
#4234375
0;
02
#4250000
0K
1;
12
#4265625
0;
02
#4281250
16"
0:"
b101 @"
1K
1;
12
#4296875
0;
02
#4312500
0K
1;
12
#4328125
0;
02
#4343750
06"
b10 @"
1:"
1K
1;
12
#4359375
0;
02
#4375000
0K
1;
12
#4390625
0;
02
#4406250
16"
0:"
b101 @"
1K
1;
12
#4421875
0;
02
#4437500
0K
1;
12
#4453125
0;
02
#4468750
06"
b10 @"
1:"
1K
1;
12
#4484375
0;
02
#4500000
0K
1;
12
#4515625
0;
02
#4531250
16"
0:"
b101 @"
1K
1;
12
#4546875
0;
02
#4562500
0K
1;
12
#4578125
0;
02
#4593750
06"
b10 @"
1:"
1K
1;
12
#4609375
0;
02
#4625000
0K
1;
12
#4640625
0;
02
#4656250
16"
0:"
b101 @"
1K
1;
12
#4671875
0;
02
#4687500
0K
1;
12
#4703125
0;
02
#4718750
06"
b10 @"
1:"
1K
1;
12
#4734375
0;
02
#4750000
0K
1;
12
#4765625
0;
02
#4781250
16"
0:"
b101 @"
1K
1;
12
#4796875
0;
02
#4812500
0K
1;
12
#4828125
0;
02
#4843750
06"
b10 @"
1:"
1K
1;
12
#4859375
0;
02
#4875000
0K
1;
12
#4890625
0;
02
#4906250
16"
0:"
b101 @"
1K
1;
12
#4921875
0;
02
#4937500
0K
1;
12
#4953125
0;
02
#4968750
06"
b10 @"
1:"
1K
1;
12
#4984375
0;
02
#5000000
0K
1;
12
#5015625
0;
02
#5031250
16"
0:"
b101 @"
1K
1;
12
#5046875
0;
02
#5062500
0K
1;
12
#5078125
0;
02
#5093750
06"
b10 @"
1:"
1K
1;
12
#5109375
0;
02
#5125000
0K
1;
12
#5140625
0;
02
#5156250
16"
0:"
b101 @"
1K
1;
12
#5171875
0;
02
#5187500
0K
1;
12
#5203125
0;
02
#5218750
06"
b10 @"
1:"
1K
1;
12
#5234375
0;
02
#5250000
0K
1;
12
#5265625
0;
02
#5281250
16"
0:"
b101 @"
1K
1;
12
#5296875
0;
02
#5312500
0K
1;
12
#5328125
0;
02
#5343750
06"
b10 @"
1:"
1K
1;
12
#5359375
0;
02
#5375000
0K
1;
12
#5390625
0;
02
#5406250
16"
0:"
b101 @"
1K
1;
12
#5421875
0;
02
#5437500
0K
1;
12
#5453125
0;
02
#5468750
06"
b10 @"
1:"
1K
1;
12
#5484375
0;
02
#5500000
0K
1;
12
#5515625
0;
02
#5531250
16"
0:"
b101 @"
1K
1;
12
#5546875
0;
02
#5562500
0K
1;
12
#5578125
0;
02
#5593750
06"
b10 @"
1:"
1K
1;
12
#5609375
0;
02
#5625000
0K
1;
12
#5640625
0;
02
#5656250
16"
0:"
b101 @"
1K
1;
12
#5671875
0;
02
#5687500
0K
1;
12
#5703125
0;
02
#5718750
06"
b10 @"
1:"
1K
1;
12
#5734375
0;
02
#5750000
0K
1;
12
#5765625
0;
02
#5781250
16"
0:"
b101 @"
1K
1;
12
#5796875
0;
02
#5812500
0K
1;
12
#5828125
0;
02
#5843750
06"
b10 @"
1:"
1K
1;
12
#5859375
0;
02
#5875000
0K
1;
12
#5890625
0;
02
#5906250
16"
0:"
b101 @"
1K
1;
12
#5921875
0;
02
#5937500
0K
1;
12
#5953125
0;
02
#5968750
06"
b10 @"
1:"
1K
1;
12
#5984375
0;
02
#6000000
0K
1;
12
#6015625
0;
02
#6031250
16"
0:"
b101 @"
1K
1;
12
#6046875
0;
02
#6062500
0K
1;
12
#6078125
0;
02
#6093750
06"
b10 @"
1:"
1K
1;
12
#6109375
0;
02
#6125000
0K
1;
12
#6140625
0;
02
#6156250
16"
0:"
b101 @"
1K
1;
12
#6171875
0;
02
#6187500
0K
1;
12
#6203125
0;
02
#6218750
06"
b10 @"
1:"
1K
1;
12
#6234375
0;
02
#6250000
0K
1;
12
#6265625
0;
02
#6281250
16"
0:"
b101 @"
1K
1;
12
#6296875
0;
02
#6312500
0K
1;
12
#6328125
0;
02
#6343750
06"
b10 @"
1:"
1K
1;
12
#6359375
0;
02
#6375000
0K
1;
12
#6390625
0;
02
#6406250
16"
0:"
b101 @"
1K
1;
12
#6421875
0;
02
#6437500
0K
1;
12
#6453125
0;
02
#6468750
06"
b10 @"
1:"
1K
1;
12
#6484375
0;
02
#6500000
0K
1;
12
#6515625
0;
02
#6531250
16"
0:"
b101 @"
1K
1;
12
#6546875
0;
02
#6562500
0K
1;
12
#6578125
0;
02
#6593750
06"
b10 @"
1:"
1K
1;
12
#6609375
0;
02
#6625000
0K
1;
12
#6640625
0;
02
#6656250
16"
0:"
b101 @"
1K
1;
12
#6671875
0;
02
#6687500
0K
1;
12
#6703125
0;
02
#6718750
06"
b10 @"
1:"
1K
1;
12
#6734375
0;
02
#6750000
0K
1;
12
#6765625
0;
02
#6781250
16"
0:"
b101 @"
1K
1;
12
#6796875
0;
02
#6812500
0K
1;
12
#6828125
0;
02
#6843750
06"
b10 @"
1:"
1K
1;
12
#6859375
0;
02
#6875000
0K
1;
12
#6890625
0;
02
#6906250
16"
0:"
b101 @"
1K
1;
12
#6921875
0;
02
#6937500
0K
1;
12
#6953125
0;
02
#6968750
06"
b10 @"
1:"
1K
1;
12
#6984375
0;
02
#7000000
0K
1;
12
#7015625
0;
02
#7031250
16"
0:"
b101 @"
1K
1;
12
#7046875
0;
02
#7062500
0K
1;
12
#7078125
0;
02
#7093750
06"
b10 @"
1:"
1K
1;
12
#7109375
0;
02
#7125000
0K
1;
12
#7140625
0;
02
#7156250
16"
0:"
b101 @"
1K
1;
12
#7171875
0;
02
#7187500
0K
1;
12
#7203125
0;
02
#7218750
06"
b10 @"
1:"
1K
1;
12
#7234375
0;
02
#7250000
0K
1;
12
#7265625
0;
02
#7281250
16"
0:"
b101 @"
1K
1;
12
#7296875
0;
02
#7312500
0K
1;
12
#7328125
0;
02
#7343750
06"
b10 @"
1:"
1K
1;
12
#7359375
0;
02
#7375000
0K
1;
12
#7390625
0;
02
#7406250
16"
0:"
b101 @"
1K
1;
12
#7421875
0;
02
#7437500
0K
1;
12
#7453125
0;
02
#7468750
06"
b10 @"
1:"
1K
1;
12
#7484375
0;
02
#7500000
0K
1;
12
#7515625
0;
02
#7531250
16"
0:"
b101 @"
1K
1;
12
#7546875
0;
02
#7562500
0K
1;
12
#7578125
0;
02
#7593750
06"
b10 @"
1:"
1K
1;
12
#7609375
0;
02
#7625000
0K
1;
12
#7640625
0;
02
#7656250
16"
0:"
b101 @"
1K
1;
12
#7671875
0;
02
#7687500
0K
1;
12
#7703125
0;
02
#7718750
06"
b10 @"
1:"
1K
1;
12
#7734375
0;
02
#7750000
0K
1;
12
#7765625
0;
02
#7781250
16"
0:"
b101 @"
1K
1;
12
#7796875
0;
02
#7812500
0K
1;
12
#7828125
0;
02
#7843750
06"
b10 @"
1:"
1K
1;
12
#7859375
0;
02
#7875000
0K
1;
12
#7890625
0;
02
#7906250
16"
0:"
b101 @"
1K
1;
12
#7921875
0;
02
#7937500
0K
1;
12
#7953125
0;
02
#7968750
06"
b10 @"
1:"
1K
1;
12
#7984375
0;
02
#8000000
0K
1;
12
#8015625
0;
02
#8031250
16"
0:"
b101 @"
1K
1;
12
#8046875
0;
02
#8062500
0K
1;
12
#8078125
0;
02
#8093750
06"
b10 @"
1:"
1K
1;
12
#8109375
0;
02
#8125000
0K
1;
12
#8140625
0;
02
#8156250
16"
0:"
b101 @"
1K
1;
12
#8171875
0;
02
#8187500
0K
1;
12
#8203125
0;
02
#8218750
06"
b10 @"
1:"
1K
1;
12
#8234375
0;
02
#8250000
0K
1;
12
#8265625
0;
02
